<?xml version="1.0" encoding="utf-8"?>
<!-- Generator: Adobe Illustrator 23.1.0, SVG Export Plug-In . SVG Version: 6.00 Build 0)  -->
<svg version="1.1" id="Layer_1" xmlns="http://www.w3.org/2000/svg" xmlns:xlink="http://www.w3.org/1999/xlink" x="0px" y="0px"
	 viewBox="0 0 289.28 289.3" style="enable-background:new 0 0 289.28 289.3;" xml:space="preserve">
<style type="text/css">
	.st0{fill:none;stroke:#0000FF;stroke-width:5;stroke-linecap:round;stroke-linejoin:round;}
	.st1{fill:none;stroke:#18A035;stroke-width:5;stroke-linecap:round;stroke-linejoin:round;}
	.st2{fill:none;stroke:#959595;stroke-width:5;stroke-linecap:round;stroke-linejoin:round;}
</style>
<g>
	<polyline class="st0" points="128.26,189.12 170.92,216.2 232.83,174.17 	"/>
	<path class="st0" d="M110.03,121.35L89.1,108.33c3.18-1.98,3.84-4.78,0-7.16l22.99-14.34c3.52,2.18,7.98,2.18,11.5,0l21.05,13.11"
		/>
	<path class="st0" d="M176.05,119.5l22.88,14.24c-3.84,2.39-3.21,5.17,0,7.14l-23.01,14.34c-3.51-2.19-7.96-2.19-11.47,0
		l-21.68-13.51"/>
	<polyline class="st0" points="128.26,150.26 170.92,177.34 232.98,138.48 187.11,110.04 	"/>
	<polyline class="st0" points="159.05,91.97 116.62,64.65 54.57,103.51 97.44,130.72 	"/>
	<polyline class="st0" points="128.26,169.76 170.92,196.77 232.98,156.12 	"/>
	<line class="st0" x1="54.57" y1="122.94" x2="97.22" y2="150"/>
	<polyline class="st0" points="128.26,208.55 170.92,235.63 232.98,192.88 	"/>
	<line class="st0" x1="54.57" y1="161.8" x2="97.23" y2="188.87"/>
	<line class="st0" x1="54.57" y1="142.37" x2="97.23" y2="169.44"/>
	<polygon class="st1" points="128.26,149.89 192.11,106.65 163.37,89.29 146.49,99.9 97.23,130.87 97.23,193.04 128.26,213.09 	"/>
	<path class="st2" d="M281.18,184.02c-21.7,75.4-100.5,118.9-175.9,97.2s-118.9-100.5-97.2-175.9s100.5-119,175.9-97.2
		c60.8,17.5,102.7,73.1,102.8,136.4"/>
</g>
</svg>
